<?xml version="1.0" encoding="utf-8"?>
<!-- Generator: Adobe Illustrator 22.1.0, SVG Export Plug-In . SVG Version: 6.00 Build 0)  -->
<svg version="1.1" id="Ebene_1" xmlns="http://www.w3.org/2000/svg" xmlns:xlink="http://www.w3.org/1999/xlink" x="0px" y="0px"
	 width="36px" height="36px" viewBox="0 0 36 36" style="enable-background:new 0 0 36 36;" xml:space="preserve">
<path d="M32,0H4C1.8,0,0,1.8,0,4v28c0,2.2,1.8,4,4,4h28c2.2,0,4-1.8,4-4V4C36,1.8,34.2,0,32,0z M28.1,13c0,0.2,0,0.3,0,0.7
	c0,6.5-5,14.1-14.1,14.1c-2.7,0-5.3-0.9-7.5-2.2c0.3,0,0.9,0,1.2,0c2.2,0,4.5-0.9,6.2-2.1c-2.2,0-3.9-1.5-4.6-3.4
	c0.3,0,0.7,0.2,0.9,0.2c0.5,0,0.9,0,1.4-0.2c-2.2-0.5-3.9-2.4-3.9-4.8c0.7,0.3,1.4,0.5,2.2,0.7c-1.4-1.2-2.2-2.6-2.2-4.3
	c0-0.9,0.2-1.7,0.7-2.4c2.4,2.9,6,5,10.1,5.1c0-0.3-0.2-0.7-0.2-1.2c0-2.7,2.2-5,5-5c1.4,0,2.7,0.5,3.6,1.5c1.2-0.2,2.2-0.7,3.1-1.2
	c-0.3,1.2-1.2,2.1-2.2,2.7c1-0.2,1.9-0.3,2.9-0.9C29.8,11.5,29,12.3,28.1,13z"/>
</svg>
