<?xml version="1.0" encoding="utf-8"?>
<!-- Generator: Adobe Illustrator 22.1.0, SVG Export Plug-In . SVG Version: 6.00 Build 0)  -->
<svg version="1.1" id="logos" xmlns="http://www.w3.org/2000/svg" xmlns:xlink="http://www.w3.org/1999/xlink" x="0px" y="0px"
	 width="192px" height="128px" viewBox="0 0 192 128" style="enable-background:new 0 0 192 128;" xml:space="preserve">
<style type="text/css">
	.st0{fill:#002C52;}
	.st1{fill:#FABB00;}
	.st2{fill:#1B1655;}
	.st3{fill:#008AC8;}
	.st4{fill:#030303;}
	.st5{fill-rule:evenodd;clip-rule:evenodd;fill:#1D1D1B;}
	.st6{fill:#FFFFFF;}
	.st7{fill:#E30613;}
	.st8{fill:#B2B2B2;}
	.st9{clip-path:url(#SVGID_2_);fill:url(#SVGID_3_);}
	.st10{fill:#878787;}
	.st11{clip-path:url(#SVGID_5_);fill:url(#SVGID_6_);}
	.st12{fill:#1D1D1B;}
	.st13{fill:#231F20;}
	.st14{fill:#EBEBEB;}
	.st15{fill:#CF171E;}
</style>
<g>
	<path id="path3261_1_" class="st3" d="M63.934,61.318c0,2.802-2.271,5.073-5.073,5.073c-2.802,0-5.073-2.27-5.073-5.073
		c0-2.802,2.271-5.073,5.073-5.073C61.663,56.245,63.934,58.516,63.934,61.318"/>
	<path id="path3271_1_" class="st3" d="M58.85,84.193c2.385,0,3.473-0.064,4.758-1.021c1.42-1.057,1.798-3.279,2.574-4.997
		c0.778-1.719,3.724-6.548,4.664-8.102c0.94-1.555,2.659-4.868,3.232-6.095c0.573-1.227,1.739-4.731,2.122-6.521
		c0.41-1.913,1.152-6.209,1.314-7.511c0.157-1.262,0.648-4.74-0.552-4.847c-1.208-0.108-1.493,0.796-1.82,1.779
		c-0.327,0.982-1.105,5.523-1.514,7.036c-0.41,1.514-1.801,5.523-2.046,6.096c-0.246,0.573-1.533,3.629-3.114,5.472
		c-2.051,2.391-3.945,3.837-5.846,4.71c-0.973,0.447-2.274,0.891-3.749,0.891c-1.475,0-2.794-0.439-3.815-0.891
		c-1.999-0.881-3.884-2.211-5.803-4.71c-1.434-1.866-2.868-4.899-3.113-5.472c-0.246-0.574-1.636-4.583-2.046-6.096
		c-0.409-1.514-1.186-6.055-1.514-7.036c-0.327-0.983-0.626-1.99-1.821-1.779c-1.247,0.22-0.709,3.586-0.553,4.847
		c0.162,1.303,0.904,5.599,1.314,7.511c0.384,1.79,1.55,5.294,2.123,6.521c0.573,1.228,2.291,4.541,3.232,6.095
		c0.941,1.554,3.887,6.384,4.664,8.102c0.777,1.718,1.224,3.851,2.574,4.997C55.244,84.128,56.464,84.193,58.85,84.193"/>
	<path class="st3" d="M51.167,47.949c0.02,0.086,0.026,0.179-0.029,0.206c-0.039,0.02-0.084,0.008-0.128-0.011
		c-3.555-2.658-7.352-5.711-9.207-7.475c-0.977-0.93-1.746-1.917-2.32-2.951c-0.054-0.126-0.105-0.317-0.035-0.522
		C39.506,37.025,39.675,37,39.739,37c0.063,0,5.129,0,6.254,0.005c0.197,0.019,0.426,0.012,0.695,0.188
		c0.14,0.092,0.287,0.258,0.375,0.478c0.373,0.943,0.768,1.924,1.187,2.946c0.514,1.256,1.021,2.496,1.517,3.718
		c0.498,1.223,0.953,2.394,1.364,3.513C51.144,47.883,51.155,47.915,51.167,47.949z"/>
	<path class="st3" d="M39.317,34.715c-0.202-0.02-0.51,0.01-0.732-0.18c-0.19-0.163-0.281-0.486-0.325-0.734
		c-0.177-1.888,0.173-3.872,1.029-5.903c0.514-1.221,1.183-2.253,1.945-3.114c0.057-0.055,0.174-0.148,0.305-0.132
		c0.112,0.014,0.19,0.096,0.241,0.177l3.974,9.093c0.046,0.149,0.14,0.429-0.009,0.608c-0.101,0.122-0.302,0.163-0.547,0.189
		C44.08,34.716,39.611,34.722,39.317,34.715z"/>
	<path class="st3" d="M78.544,27.898c2.085,4.139,1.411,9.171-2.374,12.771c-2.97,2.826-11.081,8.962-15.106,11.473
		c-0.54,0.304-1.809,0.935-2.647,0.652c-0.631-0.212-1.443-1.483-1.796-2.08c0.001,0,0.001-0.001,0.002-0.001
		c-0.446-0.823-1.02-2.024-1.724-3.602c-0.703-1.578-1.492-3.371-2.367-5.379c-0.876-2.006-1.81-4.177-2.805-6.51
		c-0.995-2.333-1.99-4.683-2.986-7.05c-0.727-1.73-1.441-3.441-2.151-5.144c-0.025-0.102-0.091-0.462,0.124-0.736
		c0.109-0.139,0.304-0.254,0.459-0.33c1.313-0.553,2.622-0.806,3.735-0.806c3.681,0.001,7.981,4.801,9.971,4.801
		c1.989,0,6.362-4.8,10.045-4.801C71.972,21.158,76.119,23.083,78.544,27.898"/>
	<path class="st4" d="M62.18,102.708c-0.236-0.529-0.501-1.129-0.794-1.801c-0.294-0.672-0.607-1.399-0.941-2.181
		c-0.334-0.781-0.668-1.568-1.002-2.36c-0.334-0.793-0.662-1.578-0.984-2.353c-0.322-0.775-0.621-1.497-0.898-2.163h-0.328
		c-0.898,2.056-1.79,4.079-2.677,6.067c-0.886,1.987-1.795,3.987-2.728,5.997c0.196-0.016,0.409-0.024,0.639-0.024
		c0.23,0,0.443,0.008,0.639,0.024c0.15-0.528,0.374-1.197,0.673-2.008c0.299-0.809,0.633-1.663,1.002-2.559
		c0.356-0.008,0.708-0.014,1.053-0.019c0.345-0.003,0.697-0.006,1.054-0.006c0.38,0,0.76,0.002,1.139,0.006
		c0.38,0.004,0.754,0.011,1.122,0.019c0.149,0.379,0.311,0.778,0.484,1.198c0.172,0.419,0.342,0.833,0.509,1.241
		c0.167,0.408,0.319,0.799,0.457,1.172c0.138,0.373,0.247,0.692,0.328,0.956c0.161-0.016,0.313-0.024,0.457-0.024
		c0.144,0,0.297,0,0.458,0c0.161,0,0.314,0,0.458,0s0.297,0.008,0.458,0.024C62.609,103.639,62.416,103.236,62.18,102.708z
		 M57.941,98.56c-0.323,0.004-0.645,0.006-0.967,0.006c-0.299,0-0.61-0.004-0.932-0.013c-0.323-0.008-0.633-0.012-0.933-0.012
		l1.882-4.386l1.917,4.386C58.586,98.55,58.263,98.556,57.941,98.56z"/>
	<path id="path3203_1_" class="st4" d="M73.206,93.555c-0.259-0.207-0.548-0.388-0.865-0.544c-0.317-0.156-0.668-0.282-1.055-0.381
		c-0.386-0.098-0.798-0.146-1.236-0.146c-0.715,0-1.38,0.109-1.997,0.327c-0.617,0.219-1.153,0.555-1.608,1.01
		c-0.455,0.454-0.813,1.029-1.072,1.725c-0.259,0.697-0.389,1.521-0.389,2.476c0,0.84,0.115,1.599,0.347,2.278
		c0.231,0.678,0.569,1.25,1.014,1.716c0.445,0.466,0.988,0.825,1.629,1.078c0.641,0.254,1.366,0.379,2.175,0.379
		c0.242,0,0.496-0.011,0.762-0.034c0.266-0.023,0.523-0.058,0.771-0.104c0.248-0.046,0.48-0.104,0.693-0.173
		c0.214-0.069,0.396-0.149,0.546-0.241c0.008-0.344,0.014-0.688,0.019-1.033c0.004-0.344,0.006-0.695,0.006-1.051
		c0-0.402-0.01-0.803-0.03-1.205c-0.02-0.402-0.042-0.787-0.068-1.155c0.291,0.058,0.57,0.087,0.837,0.087
		c0.128,0,0.256-0.005,0.384-0.017c0.128-0.011,0.25-0.034,0.367-0.069c-0.024,0.266-0.043,0.683-0.055,1.252
		c-0.012,0.569-0.018,1.321-0.018,2.253c0,0.231,0.004,0.463,0.012,0.698c0.008,0.236,0.012,0.469,0.012,0.699
		c-0.242,0.093-0.545,0.188-0.908,0.285c-0.363,0.098-0.75,0.178-1.159,0.241c-0.41,0.064-0.819,0.121-1.228,0.173
		c-0.409,0.052-0.782,0.077-1.116,0.077c-1.027,0-1.952-0.124-2.776-0.371c-0.824-0.247-1.525-0.629-2.102-1.148
		c-0.576-0.518-1.02-1.163-1.332-1.933c-0.312-0.772-0.467-1.663-0.467-2.676c0-0.978,0.161-1.85,0.484-2.615
		c0.322-0.765,0.777-1.412,1.365-1.942c0.588-0.529,1.299-0.932,2.134-1.209c0.835-0.276,1.759-0.414,2.773-0.414
		c0.587,0,1.109,0.032,1.563,0.094c0.455,0.063,0.858,0.146,1.21,0.249c0.351,0.103,0.659,0.212,0.924,0.327
		c0.265,0.115,0.501,0.224,0.709,0.327c-0.092,0.161-0.176,0.369-0.251,0.622c-0.075,0.254-0.124,0.49-0.147,0.708h-0.207
		C73.681,93.969,73.465,93.762,73.206,93.555"/>
	<path class="st4" d="M86.348,102.708c-0.236-0.529-0.501-1.129-0.794-1.801c-0.294-0.672-0.607-1.399-0.941-2.181
		c-0.334-0.781-0.668-1.568-1.002-2.36c-0.334-0.793-0.662-1.578-0.984-2.353c-0.322-0.775-0.621-1.497-0.898-2.163h-0.328
		c-0.898,2.056-1.791,4.079-2.677,6.067c-0.887,1.987-1.796,3.987-2.728,5.997c0.195-0.016,0.408-0.024,0.639-0.024
		c0.23,0,0.443,0.008,0.639,0.024c0.15-0.528,0.374-1.197,0.673-2.008c0.299-0.809,0.633-1.663,1.002-2.559
		c0.357-0.008,0.708-0.014,1.053-0.019c0.345-0.003,0.697-0.006,1.054-0.006c0.38,0,0.759,0.002,1.139,0.006
		c0.38,0.004,0.754,0.011,1.122,0.019c0.15,0.379,0.311,0.778,0.484,1.198c0.172,0.419,0.342,0.833,0.51,1.241
		c0.167,0.408,0.319,0.799,0.457,1.172c0.138,0.373,0.247,0.692,0.328,0.956c0.161-0.016,0.313-0.024,0.457-0.024
		c0.144,0,0.296,0,0.458,0c0.161,0,0.313,0,0.457,0c0.144,0,0.297,0.008,0.457,0.024C86.777,103.639,86.584,103.236,86.348,102.708z
		 M82.11,98.56c-0.323,0.004-0.645,0.006-0.967,0.006c-0.299,0-0.61-0.004-0.932-0.013c-0.323-0.008-0.634-0.012-0.933-0.012
		l1.882-4.386l1.917,4.386C82.754,98.55,82.432,98.556,82.11,98.56z"/>
	<path class="st4" d="M96.168,93.771c-0.139-0.328-0.32-0.602-0.545-0.822c-0.225-0.218-0.476-0.385-0.753-0.5
		c-0.277-0.115-0.557-0.202-0.839-0.26c-0.284-0.057-0.552-0.092-0.806-0.103c-0.254-0.012-0.467-0.018-0.641-0.018
		c-0.127,0-0.283,0.005-0.467,0.015c-0.184,0.01-0.378,0.017-0.58,0.022c-0.202,0.006-0.401,0.012-0.597,0.023
		c-0.196,0.01-0.364,0.014-0.502,0.014c-0.277,0-0.557-0.007-0.84-0.022c-0.283-0.014-0.563-0.031-0.84-0.052
		c0.037,0.759,0.07,1.503,0.101,2.233c0.03,0.73,0.045,1.474,0.045,2.233V99.5c0,0.759-0.015,1.506-0.045,2.242
		c-0.031,0.736-0.064,1.461-0.101,2.172c0.264-0.016,0.544-0.024,0.843-0.024c0.298,0,0.579,0.008,0.843,0.024
		c-0.03-0.71-0.059-1.432-0.084-2.167c-0.025-0.734-0.038-1.479-0.038-2.235v-0.946c0.23,0.022,0.456,0.035,0.675,0.041
		c0.219,0.005,0.461,0.008,0.727,0.008c0.415,0,0.891-0.046,1.428-0.139c0.536-0.092,1.044-0.27,1.523-0.535
		c0.478-0.265,0.882-0.632,1.211-1.105c0.329-0.472,0.493-1.088,0.493-1.848C96.376,94.504,96.307,94.099,96.168,93.771z
		 M94.485,96.535c-0.202,0.374-0.461,0.669-0.779,0.883c-0.317,0.213-0.667,0.36-1.048,0.441c-0.381,0.081-0.751,0.121-1.109,0.121
		c-0.427,0-0.838-0.046-1.23-0.138v-5.137h1.559c0.45,0,0.855,0.032,1.212,0.095c0.358,0.063,0.662,0.181,0.91,0.355
		c0.248,0.172,0.442,0.414,0.58,0.726c0.138,0.312,0.208,0.715,0.208,1.211C94.789,95.679,94.688,96.16,94.485,96.535z"/>
	<path id="path3209_1_" class="st4" d="M98.456,94.302c-0.031-0.729-0.064-1.474-0.1-2.233c0.149,0.021,0.291,0.038,0.429,0.052
		c0.138,0.014,0.275,0.022,0.413,0.022c0.138,0,0.275-0.007,0.413-0.022c0.138-0.014,0.281-0.031,0.43-0.052
		c-0.031,0.759-0.058,1.503-0.084,2.234c-0.025,0.729-0.038,1.474-0.038,2.233c0,1.449,0.006,2.704,0.017,3.767
		c0.011,1.064,0.022,2.015,0.032,2.855c0.818,0,1.6-0.009,2.349-0.026c0.747-0.017,1.553-0.083,2.417-0.2
		c-0.057,0.207-0.087,0.379-0.087,0.517c0,0.127,0.029,0.282,0.087,0.465c-0.53-0.016-1.06-0.024-1.588-0.024
		c-0.53,0-1.06,0-1.589,0c-0.552,0-1.086,0-1.598,0c-0.514,0-1.048,0.008-1.601,0.024c0.035-0.712,0.069-1.437,0.1-2.172
		c0.031-0.736,0.047-1.483,0.047-2.242v-2.965C98.503,95.776,98.487,95.032,98.456,94.302"/>
	<path id="path3211_1_" class="st4" d="M107.087,94.277c-0.031-0.736-0.064-1.472-0.099-2.208c0.521,0.021,1.04,0.038,1.554,0.052
		c0.515,0.014,1.031,0.022,1.548,0.022c0.518,0,1.031-0.007,1.538-0.022c0.506-0.014,1.018-0.031,1.536-0.052
		c-0.034,0.171-0.052,0.342-0.052,0.513c0,0.171,0.017,0.342,0.052,0.513c-0.368-0.022-0.705-0.045-1.01-0.067
		c-0.306-0.023-0.627-0.045-0.967-0.068c-0.339-0.022-0.711-0.042-1.114-0.059c-0.403-0.017-0.886-0.026-1.449-0.026
		c-0.013,0.368-0.028,0.719-0.045,1.053c-0.019,0.335-0.028,0.713-0.028,1.139c0,0.449,0.004,0.886,0.012,1.312
		c0.009,0.426,0.013,0.748,0.013,0.966c0.506,0,0.961-0.006,1.363-0.017c0.404-0.011,0.771-0.025,1.106-0.043
		c0.334-0.017,0.641-0.034,0.923-0.052c0.282-0.017,0.549-0.037,0.803-0.06c-0.034,0.172-0.052,0.351-0.052,0.535
		c0,0.172,0.017,0.344,0.052,0.517c-0.299-0.034-0.647-0.064-1.044-0.087c-0.397-0.023-0.794-0.037-1.191-0.043
		c-0.398-0.006-0.772-0.011-1.123-0.017c-0.351-0.006-0.63-0.009-0.836-0.009c0,0.104-0.004,0.217-0.013,0.337
		c-0.007,0.121-0.012,0.273-0.012,0.457v0.672v1.036c0,0.655,0.002,1.195,0.007,1.621c0.003,0.425,0.009,0.747,0.018,0.966
		c0.379,0,0.782,0,1.208,0c0.438,0,0.866-0.009,1.287-0.026c0.419-0.017,0.817-0.04,1.19-0.069c0.374-0.029,0.7-0.072,0.976-0.13
		c-0.023,0.08-0.038,0.17-0.043,0.267c-0.007,0.098-0.009,0.187-0.009,0.267c0,0.184,0.018,0.333,0.052,0.448
		c-0.519-0.016-1.033-0.024-1.546-0.024c-0.511,0-1.032,0-1.562,0c-0.53,0-1.053,0-1.571,0c-0.518,0-1.041,0.008-1.57,0.024
		c0.035-0.736,0.069-1.468,0.099-2.198c0.03-0.729,0.047-1.474,0.047-2.233v-2.965C107.134,95.759,107.118,95.012,107.087,94.277"/>
	<path id="path3213_1_" class="st4" d="M115.759,102.309c0.156,0.212,0.347,0.406,0.571,0.579c0.226,0.173,0.489,0.313,0.789,0.423
		c0.3,0.109,0.635,0.164,1.006,0.164c0.38,0,0.724-0.066,1.03-0.199c0.306-0.132,0.566-0.31,0.779-0.534
		c0.214-0.225,0.378-0.489,0.494-0.793c0.115-0.305,0.174-0.63,0.174-0.975c0-0.529-0.136-0.948-0.407-1.259
		c-0.271-0.311-0.608-0.57-1.012-0.776c-0.403-0.207-0.839-0.397-1.306-0.57c-0.467-0.173-0.901-0.388-1.305-0.647
		c-0.403-0.259-0.74-0.589-1.011-0.991c-0.271-0.403-0.407-0.942-0.407-1.621c0-0.483,0.085-0.922,0.259-1.32
		c0.171-0.396,0.422-0.738,0.749-1.026c0.327-0.287,0.72-0.511,1.182-0.672c0.461-0.161,0.978-0.241,1.554-0.241
		c0.552,0,1.031,0.065,1.433,0.196c0.402,0.132,0.777,0.336,1.123,0.611c-0.104,0.196-0.191,0.403-0.259,0.622
		c-0.069,0.219-0.139,0.495-0.208,0.828h-0.207c-0.058-0.161-0.135-0.336-0.233-0.526c-0.098-0.19-0.23-0.366-0.397-0.526
		c-0.168-0.161-0.366-0.297-0.596-0.407c-0.231-0.109-0.507-0.163-0.83-0.163c-0.322,0-0.619,0.051-0.889,0.155
		c-0.271,0.104-0.507,0.251-0.708,0.441c-0.201,0.19-0.357,0.417-0.466,0.681c-0.109,0.266-0.164,0.553-0.164,0.864
		c0,0.541,0.134,0.967,0.405,1.279c0.271,0.311,0.609,0.573,1.012,0.785c0.404,0.212,0.838,0.403,1.305,0.57
		c0.467,0.167,0.903,0.371,1.306,0.613c0.403,0.242,0.74,0.553,1.011,0.933c0.271,0.381,0.407,0.886,0.407,1.519
		c0,0.53-0.096,1.031-0.286,1.503c-0.191,0.473-0.467,0.884-0.83,1.235c-0.364,0.352-0.808,0.622-1.333,0.812
		c-0.525,0.19-1.122,0.284-1.791,0.284c-0.715,0-1.295-0.096-1.739-0.288c-0.444-0.193-0.816-0.41-1.116-0.655
		c0.104-0.264,0.176-0.503,0.217-0.716c0.04-0.213,0.078-0.486,0.113-0.82h0.207C115.48,101.886,115.603,102.096,115.759,102.309"/>
	<path id="path3215_1_" class="st4" d="M124.376,94.302c-0.03-0.729-0.064-1.474-0.1-2.233c0.148,0.021,0.292,0.038,0.43,0.052
		c0.136,0.014,0.275,0.022,0.413,0.022c0.138,0,0.275-0.007,0.413-0.022c0.136-0.014,0.281-0.031,0.429-0.052
		c-0.03,0.759-0.059,1.503-0.084,2.233c-0.026,0.73-0.038,1.474-0.038,2.233V99.5c0,0.759,0.012,1.506,0.038,2.242
		c0.025,0.736,0.053,1.461,0.084,2.172c-0.263-0.016-0.544-0.024-0.842-0.024c-0.299,0-0.58,0.008-0.843,0.024
		c0.037-0.712,0.07-1.437,0.1-2.172c0.031-0.736,0.045-1.483,0.045-2.242v-2.965C124.421,95.776,124.406,95.032,124.376,94.302"/>
	<path class="st4" d="M140.689,95.414c-0.316-0.765-0.759-1.412-1.328-1.942c-0.57-0.529-1.251-0.932-2.045-1.209
		c-0.793-0.276-1.667-0.414-2.622-0.414c-0.943,0-1.811,0.138-2.605,0.414c-0.793,0.276-1.474,0.68-2.044,1.209
		c-0.569,0.53-1.012,1.177-1.327,1.942c-0.316,0.766-0.474,1.637-0.474,2.615c0,0.978,0.158,1.851,0.474,2.615
		c0.316,0.766,0.759,1.413,1.327,1.942c0.57,0.53,1.251,0.924,2.044,1.183c0.794,0.259,1.662,0.388,2.605,0.388
		c0.954,0,1.829-0.129,2.622-0.388c0.793-0.259,1.475-0.653,2.045-1.183c0.569-0.529,1.012-1.176,1.328-1.942
		c0.317-0.764,0.475-1.637,0.475-2.615C141.163,97.051,141.005,96.18,140.689,95.414z M139.115,100.524
		c-0.242,0.698-0.579,1.275-1.01,1.731c-0.431,0.456-0.938,0.793-1.52,1.012c-0.581,0.22-1.211,0.329-1.89,0.329
		c-0.667,0-1.291-0.109-1.873-0.329c-0.582-0.219-1.088-0.556-1.52-1.012c-0.432-0.455-0.768-1.033-1.01-1.731
		c-0.241-0.698-0.362-1.526-0.362-2.484c0-0.957,0.12-1.786,0.362-2.483c0.242-0.698,0.579-1.275,1.01-1.731
		c0.432-0.455,0.938-0.793,1.52-1.013c0.582-0.219,1.206-0.328,1.873-0.328c0.679,0,1.31,0.109,1.89,0.328
		c0.582,0.22,1.089,0.558,1.52,1.013c0.432,0.457,0.768,1.033,1.01,1.731c0.241,0.698,0.363,1.526,0.363,2.483
		C139.478,98.998,139.356,99.827,139.115,100.524z"/>
	<path id="path3219_1_" class="st4" d="M149.08,99.454c-1.502-1.605-3.002-3.202-4.503-4.79c-0.011,0.322-0.022,0.754-0.032,1.295
		c-0.011,0.541-0.017,1.278-0.017,2.21c0,0.242,0.003,0.541,0.009,0.898c0.006,0.356,0.011,0.731,0.017,1.122
		c0.006,0.391,0.014,0.788,0.026,1.192c0.011,0.403,0.023,0.777,0.035,1.122c0.012,0.346,0.023,0.647,0.034,0.906
		c0.011,0.259,0.023,0.435,0.035,0.526c-0.185-0.023-0.389-0.034-0.61-0.034c-0.232,0-0.445,0.011-0.641,0.034
		c0.023-0.115,0.049-0.328,0.078-0.638c0.028-0.311,0.054-0.682,0.078-1.113c0.023-0.432,0.049-0.901,0.077-1.407
		c0.029-0.506,0.052-1.013,0.069-1.52c0.017-0.506,0.031-1.001,0.043-1.484c0.011-0.483,0.017-0.915,0.017-1.295
		c0-1.105-0.003-2.054-0.009-2.848c-0.005-0.794-0.019-1.387-0.04-1.778h0.276c0.704,0.759,1.457,1.574,2.26,2.442
		c0.802,0.869,1.598,1.727,2.388,2.572c0.791,0.845,1.54,1.646,2.252,2.4c0.709,0.754,1.329,1.396,1.86,1.925v-2.348
		c0-1.208-0.008-2.385-0.027-3.53c-0.018-1.145-0.057-2.224-0.119-3.237c0.232,0.058,0.429,0.087,0.592,0.087
		c0.139,0,0.324-0.028,0.557-0.087c-0.023,0.254-0.048,0.633-0.076,1.139c-0.028,0.507-0.057,1.048-0.084,1.623
		c-0.028,0.575-0.053,1.139-0.075,1.692c-0.023,0.552-0.034,0.996-0.034,1.329c0,0.288,0,0.633,0,1.036
		c0,0.391,0.002,0.8,0.008,1.225c0.006,0.426,0.011,0.855,0.016,1.287c0.006,0.432,0.011,0.834,0.017,1.208
		c0.005,0.374,0.008,0.7,0.008,0.976c0,0.254,0,0.443,0,0.569h-0.242C151.994,102.628,150.58,101.06,149.08,99.454"/>
	<path class="st4" d="M74.486,79.351c-0.554-0.551-1.224-0.827-2.01-0.827c-0.781,0-1.447,0.276-1.999,0.827
		c-0.555,0.554-0.831,1.22-0.831,2c0,0.787,0.275,1.458,0.824,2.011c0.551,0.556,1.22,0.834,2.006,0.834
		c0.786,0,1.456-0.278,2.01-0.834c0.554-0.556,0.831-1.227,0.831-2.011C75.317,80.568,75.04,79.901,74.486,79.351z M74.203,83.087
		c-0.475,0.479-1.051,0.717-1.729,0.717c-0.679,0-1.255-0.239-1.73-0.717c-0.472-0.478-0.708-1.056-0.708-1.734
		c0-0.673,0.237-1.246,0.711-1.721c0.478-0.478,1.052-0.717,1.726-0.717c0.675,0,1.252,0.239,1.729,0.717
		c0.475,0.475,0.712,1.048,0.712,1.721C74.915,82.031,74.679,82.609,74.203,83.087z"/>
	<path class="st4" d="M73.719,82.699c-0.005-0.082-0.008-0.16-0.008-0.231v-0.226c0-0.156-0.057-0.316-0.169-0.48
		c-0.113-0.163-0.292-0.264-0.535-0.303c0.193-0.031,0.343-0.081,0.451-0.151c0.203-0.131,0.305-0.336,0.305-0.615
		c0-0.392-0.161-0.656-0.484-0.789c-0.181-0.076-0.465-0.114-0.852-0.114h-1.093v3.109h0.546v-1.214h0.437
		c0.294,0,0.499,0.032,0.615,0.099c0.198,0.115,0.295,0.35,0.295,0.706v0.245l0.012,0.099c0.003,0.013,0.005,0.025,0.008,0.035
		c0.003,0.01,0.005,0.021,0.008,0.03h0.508l-0.018-0.038C73.732,82.835,73.723,82.78,73.719,82.699z M72.904,81.224
		c-0.117,0.046-0.292,0.069-0.526,0.069h-0.499V80.18h0.471c0.307,0,0.529,0.039,0.668,0.114c0.139,0.077,0.208,0.227,0.208,0.45
		C73.227,80.98,73.12,81.139,72.904,81.224z"/>
</g>
</svg>
