<?xml version="1.0" encoding="utf-8"?>
<svg version="1.1" id="Ebene_2" xmlns="http://www.w3.org/2000/svg" xmlns:xlink="http://www.w3.org/1999/xlink" x="0px" y="0px"
	 viewBox="0 0 96 96" enable-background="new 0 0 96 96" xml:space="preserve">
<circle fill="#1DB0E7" cx="48" cy="48" r="48"/>
<path fill="#FFFFFF" d="M52,68.8c0,1.2-1,2.3-2.3,2.3H29.5C27,71,25,69,25,66.5v-41c0-2.5,2-4.5,4.5-4.5h11.7
	c0.9-2.6,3.4-4.5,6.3-4.5s5.4,1.9,6.3,4.5h11.7c2.5,0,4.5,2,4.5,4.5v25.3c0,1.2-1,2.3-2.3,2.3s-2.3-1-2.3-2.3V25.5H49.8v-2.3
	c0-1.2-1-2.3-2.3-2.3s-2.3,1-2.3,2.3v2.3H29.5v41h20.3C51,66.5,52,67.5,52,68.8z M58.8,57.5h-4.5c0-3.8-3-6.8-6.8-6.8
	s-6.8,3-6.8,6.8h-4.5c0-3.9,2-7.3,5-9.3c-1.7-1.6-2.7-3.9-2.7-6.4c0-4.9,4.1-9,9-9s9,4.1,9,9c0,2.5-1.1,4.8-2.7,6.4
	C56.8,50.2,58.8,53.6,58.8,57.5z M52,41.8c0-2.5-2-4.5-4.5-4.5s-4.5,2-4.5,4.5s2,4.5,4.5,4.5S52,44.3,52,41.8z M79,68.8
	c0,1.2-1,2.3-2.3,2.3c-0.1,0-0.2,0-0.3-0.1c-0.2,0.9-0.6,1.7-1,2.4c0.1,0.1,0.2,0.1,0.3,0.2c0.9,0.9,0.9,2.3,0,3.2
	c-0.4,0.4-1,0.7-1.6,0.7s-1.2-0.2-1.6-0.7c-0.1-0.1-0.1-0.2-0.2-0.3c-0.7,0.4-1.6,0.8-2.4,1c0,0.1,0.1,0.2,0.1,0.3
	c0,1.2-1,2.3-2.3,2.3s-2.3-1-2.3-2.3c0-0.1,0-0.2,0.1-0.3c-0.9-0.2-1.7-0.6-2.4-1c-0.1,0.1-0.1,0.2-0.2,0.3c-0.4,0.4-1,0.7-1.6,0.7
	s-1.2-0.2-1.6-0.7c-0.9-0.9-0.9-2.3,0-3.2c0.1-0.1,0.2-0.1,0.3-0.2c-0.4-0.7-0.8-1.6-1-2.4c-0.1,0-0.2,0.1-0.3,0.1
	c-1.2,0-2.3-1-2.3-2.3s1-2.3,2.3-2.3c0.1,0,0.2,0,0.3,0.1c0.2-0.9,0.6-1.7,1-2.4c-0.1-0.1-0.2-0.1-0.3-0.2c-0.9-0.9-0.9-2.3,0-3.2
	c0.4-0.4,1-0.7,1.6-0.7s1.2,0.2,1.6,0.7c0.1,0.1,0.1,0.2,0.2,0.3c0.7-0.4,1.6-0.8,2.4-1c0-0.1-0.1-0.2-0.1-0.3c0-1.2,1-2.3,2.3-2.3
	s2.2,1,2.2,2.3c0,0.1,0,0.2-0.1,0.3c0.9,0.2,1.7,0.6,2.4,1c0.1-0.1,0.1-0.2,0.2-0.3c0.4-0.4,1-0.7,1.6-0.7s1.2,0.2,1.6,0.7
	c0.9,0.9,0.9,2.3,0,3.2c-0.1,0.1-0.2,0.1-0.3,0.2c0.4,0.7,0.8,1.6,1,2.4c0.1,0,0.2-0.1,0.3-0.1C78,66.5,79,67.5,79,68.8z M72.3,68.8
	c0-2.5-2-4.5-4.5-4.5s-4.5,2-4.5,4.5s2,4.5,4.5,4.5S72.3,71.2,72.3,68.8z"/>
</svg>
